<?xml version="1.0" encoding="UTF-8" standalone="no"?>
<!-- Created with Inkscape (http://www.inkscape.org/) -->

<svg
   xmlns:dc="http://purl.org/dc/elements/1.1/"
   xmlns:cc="http://creativecommons.org/ns#"
   xmlns:rdf="http://www.w3.org/1999/02/22-rdf-syntax-ns#"
   xmlns:svg="http://www.w3.org/2000/svg"
   xmlns="http://www.w3.org/2000/svg"
   xmlns:sodipodi="http://sodipodi.sourceforge.net/DTD/sodipodi-0.dtd"
   xmlns:inkscape="http://www.inkscape.org/namespaces/inkscape"
   width="148mm"
   height="105mm"
   viewBox="0 0 148 105"
   version="1.1"
   id="svg8"
   inkscape:version="0.92.1 r15371"
   sodipodi:docname="liberafoms-modalitats.svg">
  <defs
     id="defs2" />
  <sodipodi:namedview
     id="base"
     pagecolor="#ffffff"
     bordercolor="#666666"
     borderopacity="1.0"
     inkscape:pageopacity="0.0"
     inkscape:pageshadow="2"
     inkscape:zoom="0.7"
     inkscape:cx="259.3885"
     inkscape:cy="212.6603"
     inkscape:document-units="mm"
     inkscape:current-layer="layer1"
     showgrid="false"
     inkscape:window-width="1366"
     inkscape:window-height="704"
     inkscape:window-x="0"
     inkscape:window-y="27"
     inkscape:window-maximized="1" />
  <metadata
     id="metadata5">
    <rdf:RDF>
      <cc:Work
         rdf:about="">
        <dc:format>image/svg+xml</dc:format>
        <dc:type
           rdf:resource="http://purl.org/dc/dcmitype/StillImage" />
        <dc:title />
      </cc:Work>
    </rdf:RDF>
  </metadata>
  <g
     inkscape:label="Capa 1"
     inkscape:groupmode="layer"
     id="layer1"
     transform="translate(0,-192)">
    <text
       id="text823"
       y="206.87639"
       x="40.357697"
       style="font-style:normal;font-variant:normal;font-weight:normal;font-stretch:normal;font-size:5.64444447px;line-height:1.25;font-family:'URW Gothic L';-inkscape-font-specification:'URW Gothic L';text-align:end;letter-spacing:0px;word-spacing:0px;text-anchor:end;fill:#000000;fill-opacity:1;stroke:none;stroke-width:0.26458332"
       xml:space="preserve"><tspan
         style="font-size:5.64444447px;stroke-width:0.26458332"
         y="212.11963"
         x="40.357697"
         id="tspan821"
         sodipodi:role="line" /></text>
    <rect
       y="192.26437"
       x="0.26437137"
       height="104.47125"
       width="49.299999"
       id="rect827"
       style="opacity:1;fill:#ffe680;fill-opacity:1;stroke:none;stroke-width:0.53188664;stroke-linecap:square;stroke-miterlimit:4;stroke-dasharray:none;stroke-dashoffset:0;stroke-opacity:1;paint-order:fill markers stroke"
       inkscape:export-xdpi="300"
       inkscape:export-ydpi="300" />
    <rect
       style="opacity:1;fill:#bcd35f;fill-opacity:1;stroke:none;stroke-width:0.53188664;stroke-linecap:square;stroke-miterlimit:4;stroke-dasharray:none;stroke-dashoffset:0;stroke-opacity:1;paint-order:fill markers stroke"
       id="rect829"
       width="49.299999"
       height="104.47125"
       x="49.564369"
       y="192.26437"
       inkscape:export-xdpi="300"
       inkscape:export-ydpi="300" />
    <rect
       y="192.26437"
       x="98.689438"
       height="104.47125"
       width="49.299999"
       id="rect831"
       style="opacity:1;fill:#ddafe9;fill-opacity:1;stroke:none;stroke-width:0.53188664;stroke-linecap:square;stroke-miterlimit:4;stroke-dasharray:none;stroke-dashoffset:0;stroke-opacity:1;paint-order:fill markers stroke"
       inkscape:export-xdpi="300"
       inkscape:export-ydpi="300" />
    <text
       id="text837"
       y="202.89424"
       x="24.067888"
       style="font-style:normal;font-variant:normal;font-weight:normal;font-stretch:normal;font-size:5.64444447px;line-height:1;font-family:'URW Gothic L';-inkscape-font-specification:'URW Gothic L';text-align:center;letter-spacing:0px;word-spacing:0px;text-anchor:middle;fill:#000000;fill-opacity:1;stroke:none;stroke-width:0.26458332"
       xml:space="preserve"
       inkscape:export-xdpi="300"
       inkscape:export-ydpi="300"><tspan
         id="tspan835"
         style="font-size:5.64444447px;line-height:1;text-align:center;text-anchor:middle;stroke-width:0.26458332"
         y="202.89424"
         x="24.067888"
         sodipodi:role="line">Modalitat</tspan><tspan
         style="font-style:normal;font-variant:normal;font-weight:600;font-stretch:normal;font-size:5.64444447px;line-height:1;font-family:'URW Gothic L';-inkscape-font-specification:'URW Gothic L Semi-Bold';text-align:center;text-anchor:middle;stroke-width:0.26458332"
         y="208.53868"
         x="24.067888"
         sodipodi:role="line"
         id="tspan841">gratuïta</tspan></text>
    <text
       xml:space="preserve"
       style="font-style:normal;font-variant:normal;font-weight:normal;font-stretch:normal;font-size:5.64444447px;line-height:1;font-family:'URW Gothic L';-inkscape-font-specification:'URW Gothic L';text-align:center;letter-spacing:0px;word-spacing:0px;text-anchor:middle;fill:#000000;fill-opacity:1;stroke:none;stroke-width:0.26458332"
       x="73.280434"
       y="200.24844"
       id="text847"
       inkscape:export-xdpi="300"
       inkscape:export-ydpi="300"><tspan
         sodipodi:role="line"
         x="73.280434"
         y="200.24844"
         style="font-size:5.64444447px;line-height:1;text-align:center;text-anchor:middle;stroke-width:0.26458332"
         id="tspan843">Modalitat</tspan><tspan
         id="tspan845"
         sodipodi:role="line"
         x="74.068672"
         y="205.89288"
         style="font-style:normal;font-variant:normal;font-weight:600;font-stretch:normal;font-size:5.64444447px;line-height:1;font-family:'URW Gothic L';-inkscape-font-specification:'URW Gothic L Semi-Bold';text-align:center;text-anchor:middle;stroke-width:0.26458332">quota </tspan><tspan
         sodipodi:role="line"
         x="73.280434"
         y="211.54176"
         style="font-style:normal;font-variant:normal;font-weight:600;font-stretch:normal;font-size:5.64444447px;line-height:1;font-family:'URW Gothic L';-inkscape-font-specification:'URW Gothic L Semi-Bold';text-align:center;text-anchor:middle;stroke-width:0.26458332"
         id="tspan849">sense domini</tspan></text>
    <text
       id="text857"
       y="200.24844"
       x="123.02213"
       style="font-style:normal;font-variant:normal;font-weight:normal;font-stretch:normal;font-size:5.64444447px;line-height:1;font-family:'URW Gothic L';-inkscape-font-specification:'URW Gothic L';text-align:center;letter-spacing:0px;word-spacing:0px;text-anchor:middle;fill:#000000;fill-opacity:1;stroke:none;stroke-width:0.26458332"
       xml:space="preserve"
       inkscape:export-xdpi="300"
       inkscape:export-ydpi="300"><tspan
         id="tspan851"
         style="font-size:5.64444447px;line-height:1;text-align:center;text-anchor:middle;stroke-width:0.26458332"
         y="200.24844"
         x="123.02213"
         sodipodi:role="line">Modalitat</tspan><tspan
         style="font-style:normal;font-variant:normal;font-weight:600;font-stretch:normal;font-size:5.64444447px;line-height:1;font-family:'URW Gothic L';-inkscape-font-specification:'URW Gothic L Semi-Bold';text-align:center;text-anchor:middle;stroke-width:0.26458332"
         y="205.89288"
         x="123.81037"
         sodipodi:role="line"
         id="tspan853">quota </tspan><tspan
         id="tspan855"
         style="font-style:normal;font-variant:normal;font-weight:600;font-stretch:normal;font-size:5.64444447px;line-height:1;font-family:'URW Gothic L';-inkscape-font-specification:'URW Gothic L Semi-Bold';text-align:center;text-anchor:middle;stroke-width:0.26458332"
         y="211.54176"
         x="123.02213"
         sodipodi:role="line">amb domini</tspan></text>
    <rect
       style="opacity:1;fill:#000000;fill-opacity:1;stroke:none;stroke-width:0.917;stroke-linecap:square;stroke-miterlimit:4;stroke-dasharray:none;stroke-dashoffset:0;stroke-opacity:1;paint-order:fill markers stroke"
       id="rect859"
       width="139.51469"
       height="0.53453904"
       x="3.2072341"
       y="215.21552"
       inkscape:export-xdpi="300"
       inkscape:export-ydpi="300" />
    <rect
       y="243.26097"
       x="3.2072341"
       height="0.53453904"
       width="139.51469"
       id="rect861"
       style="opacity:1;fill:#000000;fill-opacity:1;stroke:none;stroke-width:0.917;stroke-linecap:square;stroke-miterlimit:4;stroke-dasharray:none;stroke-dashoffset:0;stroke-opacity:1;paint-order:fill markers stroke"
       inkscape:export-xdpi="300"
       inkscape:export-ydpi="300" />
    <text
       id="text867"
       y="251.40384"
       x="40.160995"
       style="font-style:normal;font-variant:normal;font-weight:600;font-stretch:normal;font-size:4.93888903px;line-height:1;font-family:'URW Gothic L';-inkscape-font-specification:'URW Gothic L Semi-Bold';text-align:center;letter-spacing:0px;word-spacing:0px;text-anchor:middle;fill:#000000;fill-opacity:1;stroke:none;stroke-width:0.26458332"
       xml:space="preserve"
       inkscape:export-xdpi="300"
       inkscape:export-ydpi="300"><tspan
         id="tspan865"
         style="font-style:normal;font-variant:normal;font-weight:600;font-stretch:normal;font-size:4.93888903px;line-height:1;font-family:'URW Gothic L';-inkscape-font-specification:'URW Gothic L Semi-Bold';text-align:center;text-anchor:middle;stroke-width:0.26458332"
         y="251.40384"
         x="40.160995"
         sodipodi:role="line">funcionalitats d'usuària</tspan></text>
    <text
       xml:space="preserve"
       style="font-style:normal;font-variant:normal;font-weight:normal;font-stretch:normal;font-size:3.88055563px;line-height:1;font-family:'URW Gothic L';-inkscape-font-specification:'URW Gothic L';text-align:start;letter-spacing:0px;word-spacing:0px;text-anchor:start;fill:#000000;fill-opacity:1;stroke:none;stroke-width:0.26458332"
       x="9.7811556"
       y="249.69107"
       id="text879"
       inkscape:export-xdpi="300"
       inkscape:export-ydpi="300"><tspan
         sodipodi:role="line"
         x="9.7811556"
         y="252.81073"
         style="font-size:3.88055563px;line-height:1;text-align:start;text-anchor:start;stroke-width:0.26458332"
         id="tspan877" /><tspan
         sodipodi:role="line"
         x="9.7811556"
         y="256.69128"
         style="font-size:3.88055563px;line-height:1;text-align:start;text-anchor:start;stroke-width:0.26458332"
         id="tspan885">Crear i publicar formularis en línia</tspan><tspan
         sodipodi:role="line"
         x="9.7811556"
         y="260.57184"
         style="font-size:3.88055563px;line-height:1;text-align:start;text-anchor:start;stroke-width:0.26458332"
         id="tspan887">Consultar per taula, gràfic, CSV</tspan><tspan
         sodipodi:role="line"
         x="9.7811556"
         y="264.45239"
         style="font-size:3.88055563px;line-height:1;text-align:start;text-anchor:start;stroke-width:0.26458332"
         id="tspan889">Definir la pantalla de 'Gràcies!'</tspan><tspan
         sodipodi:role="line"
         x="9.7811556"
         y="268.33295"
         style="font-size:3.88055563px;line-height:1;text-align:start;text-anchor:start;stroke-width:0.26458332"
         id="tspan891">Rebre notificacions per correu electrònic</tspan><tspan
         sodipodi:role="line"
         x="9.7811556"
         y="272.2135"
         style="font-size:3.88055563px;line-height:1;text-align:start;text-anchor:start;stroke-width:0.26458332"
         id="tspan893">Incloure textos propis </tspan><tspan
         sodipodi:role="line"
         x="9.7811556"
         y="276.09406"
         style="font-size:3.88055563px;line-height:1;text-align:start;text-anchor:start;stroke-width:0.26458332"
         id="tspan895">Incloure justificant de recepció</tspan><tspan
         sodipodi:role="line"
         x="9.7811556"
         y="279.97461"
         style="font-size:3.88055563px;line-height:1;text-align:start;text-anchor:start;stroke-width:0.26458332"
         id="tspan897">Definir data i camps numèrics</tspan><tspan
         sodipodi:role="line"
         x="9.7811556"
         y="283.85516"
         style="font-size:3.88055563px;line-height:1;text-align:start;text-anchor:start;stroke-width:0.26458332"
         id="tspan899">Definir la pantalla de caducitat</tspan><tspan
         sodipodi:role="line"
         x="9.7811556"
         y="287.73575"
         style="font-size:3.88055563px;line-height:1;text-align:start;text-anchor:start;stroke-width:0.26458332"
         id="tspan901">Inscrustar el formulari a una altra web</tspan><tspan
         sodipodi:role="line"
         x="9.7811556"
         y="291.6163"
         style="font-size:3.88055563px;line-height:1;text-align:start;text-anchor:start;stroke-width:0.26458332"
         id="tspan903" /><tspan
         sodipodi:role="line"
         x="9.7811556"
         y="295.49686"
         style="font-size:3.88055563px;line-height:1;text-align:start;text-anchor:start;stroke-width:0.26458332"
         id="tspan883" /></text>
    <text
       xml:space="preserve"
       style="font-style:normal;font-variant:normal;font-weight:600;font-stretch:normal;font-size:4.93888903px;line-height:1;font-family:'URW Gothic L';-inkscape-font-specification:'URW Gothic L Semi-Bold';text-align:center;letter-spacing:0px;word-spacing:0px;text-anchor:middle;fill:#000000;fill-opacity:1;stroke:none;stroke-width:0.26458332"
       x="123.76933"
       y="250.34552"
       id="text911"
       inkscape:export-xdpi="300"
       inkscape:export-ydpi="300"><tspan
         sodipodi:role="line"
         x="124.45904"
         y="250.34552"
         style="font-style:normal;font-variant:normal;font-weight:600;font-stretch:normal;font-size:4.93888903px;line-height:1;font-family:'URW Gothic L';-inkscape-font-specification:'URW Gothic L Semi-Bold';text-align:center;text-anchor:middle;stroke-width:0.26458332"
         id="tspan909">funcionalitats </tspan><tspan
         sodipodi:role="line"
         x="123.76933"
         y="255.28441"
         style="font-style:normal;font-variant:normal;font-weight:600;font-stretch:normal;font-size:4.93888903px;line-height:1;font-family:'URW Gothic L';-inkscape-font-specification:'URW Gothic L Semi-Bold';text-align:center;text-anchor:middle;stroke-width:0.26458332"
         id="tspan913">d'administradora</tspan></text>
    <text
       id="text939"
       y="251.84549"
       x="101.2136"
       style="font-style:normal;font-variant:normal;font-weight:normal;font-stretch:normal;font-size:3.52777767px;line-height:1;font-family:'URW Gothic L';-inkscape-font-specification:'URW Gothic L';text-align:start;letter-spacing:0px;word-spacing:0px;text-anchor:start;fill:#000000;fill-opacity:1;stroke:none;stroke-width:0.26458332"
       xml:space="preserve"
       inkscape:export-xdpi="300"
       inkscape:export-ydpi="300"><tspan
         id="tspan915"
         style="font-size:3.52777767px;line-height:1;text-align:start;text-anchor:start;stroke-width:0.26458332"
         y="254.68155"
         x="101.2136"
         sodipodi:role="line" /><tspan
         id="tspan933"
         style="font-size:3.52777767px;line-height:1;text-align:start;text-anchor:start;stroke-width:0.26458332"
         y="258.20932"
         x="101.2136"
         sodipodi:role="line" /><tspan
         style="font-size:3.52777767px;line-height:1;text-align:start;text-anchor:start;stroke-width:0.26458332"
         y="261.73709"
         x="101.2136"
         sodipodi:role="line"
         id="tspan993">Administrar usuàries</tspan><tspan
         style="font-size:3.52777767px;line-height:1;text-align:start;text-anchor:start;stroke-width:0.26458332"
         y="265.26486"
         x="101.2136"
         sodipodi:role="line"
         id="tspan995">Definir termes i condicions</tspan><tspan
         style="font-size:3.52777767px;line-height:1;text-align:start;text-anchor:start;stroke-width:0.26458332"
         y="268.79263"
         x="101.2136"
         sodipodi:role="line"
         id="tspan997">compartibles</tspan><tspan
         style="font-size:3.52777767px;line-height:1;text-align:start;text-anchor:start;stroke-width:0.26458332"
         y="272.3204"
         x="101.2136"
         sodipodi:role="line"
         id="tspan1017">Treballar en equip </tspan><tspan
         style="font-size:3.52777767px;line-height:1;text-align:start;text-anchor:start;stroke-width:0.26458332"
         y="275.84821"
         x="101.2136"
         sodipodi:role="line"
         id="tspan999">Configurar el SMTP </tspan><tspan
         style="font-size:3.52777767px;line-height:1;text-align:start;text-anchor:start;stroke-width:0.26458332"
         y="279.37598"
         x="101.2136"
         sodipodi:role="line"
         id="tspan1001">Personalitzar la web </tspan><tspan
         style="font-size:3.52777767px;line-height:1;text-align:start;text-anchor:start;stroke-width:0.26458332"
         y="282.90375"
         x="101.2136"
         sodipodi:role="line"
         id="tspan1003">   Text de la pàgina d'inici</tspan><tspan
         style="font-size:3.52777767px;line-height:1;text-align:start;text-anchor:start;stroke-width:0.26458332"
         y="286.43152"
         x="101.2136"
         sodipodi:role="line"
         id="tspan1005">   Nom del lloc web</tspan><tspan
         style="font-size:3.52777767px;line-height:1;text-align:start;text-anchor:start;stroke-width:0.26458332"
         y="289.95932"
         x="101.2136"
         sodipodi:role="line"
         id="tspan1007">   Icona (favicon)</tspan><tspan
         style="font-size:3.52777767px;line-height:1;text-align:start;text-anchor:start;stroke-width:0.26458332"
         y="293.48709"
         x="101.2136"
         sodipodi:role="line"
         id="tspan1009">   Color del menú</tspan><tspan
         style="font-size:3.52777767px;line-height:1;text-align:start;text-anchor:start;stroke-width:0.26458332"
         y="297.01486"
         x="101.2136"
         sodipodi:role="line"
         id="tspan1011" /><tspan
         id="tspan935"
         style="font-size:3.52777767px;line-height:1;text-align:start;text-anchor:start;stroke-width:0.26458332"
         y="300.54263"
         x="101.2136"
         sodipodi:role="line" /><tspan
         id="tspan937"
         style="font-size:3.52777767px;line-height:1;text-align:start;text-anchor:start;stroke-width:0.26458332"
         y="304.0704"
         x="101.2136"
         sodipodi:role="line" /></text>
    <flowRoot
       xml:space="preserve"
       id="flowRoot941"
       style="fill:black;fill-opacity:1;stroke:none;font-family:'URW Gothic L';font-style:normal;font-weight:normal;font-size:29.33333333px;line-height:1.25;letter-spacing:0px;word-spacing:0px;-inkscape-font-specification:'URW Gothic L';font-stretch:normal;font-variant:normal;text-anchor:end;text-align:end"><flowRegion
         id="flowRegion943"><rect
           id="rect945"
           width="104.28571"
           height="52.857143"
           x="218.57143"
           y="473.99326" /></flowRegion><flowPara
         id="flowPara947" /></flowRoot>    <text
       xml:space="preserve"
       style="font-style:normal;font-variant:normal;font-weight:600;font-stretch:normal;font-size:3.52777767px;line-height:1.10000002;font-family:'URW Gothic L';-inkscape-font-specification:'URW Gothic L Semi-Bold';text-align:center;letter-spacing:0px;word-spacing:0px;text-anchor:middle;fill:#000000;fill-opacity:1;stroke:none;stroke-width:0.26458332"
       x="24.087225"
       y="220.92435"
       id="text1021"
       inkscape:export-xdpi="300"
       inkscape:export-ydpi="300"><tspan
         sodipodi:role="line"
         x="24.087225"
         y="220.92435"
         style="font-style:normal;font-variant:normal;font-weight:600;font-stretch:normal;font-size:3.52777767px;line-height:1.10000002;font-family:'URW Gothic L';-inkscape-font-specification:'URW Gothic L Semi-Bold';text-align:center;text-anchor:middle;stroke-width:0.26458332"
         id="tspan1023">Màxim de respostes l'any</tspan><tspan
         sodipodi:role="line"
         x="24.087225"
         y="224.80766"
         style="font-style:normal;font-variant:normal;font-weight:normal;font-stretch:normal;font-size:4.23333333px;line-height:1.10000002;font-family:'URW Gothic L';-inkscape-font-specification:'URW Gothic L';text-align:center;text-anchor:middle;stroke-width:0.26458332"
         id="tspan1027">200</tspan></text>
    <text
       id="text1033"
       y="220.92435"
       x="73.299767"
       style="font-style:normal;font-variant:normal;font-weight:600;font-stretch:normal;font-size:3.52777767px;line-height:1.10000002;font-family:'URW Gothic L';-inkscape-font-specification:'URW Gothic L Semi-Bold';text-align:center;letter-spacing:0px;word-spacing:0px;text-anchor:middle;fill:#000000;fill-opacity:1;stroke:none;stroke-width:0.26458332"
       xml:space="preserve"
       inkscape:export-xdpi="300"
       inkscape:export-ydpi="300"><tspan
         id="tspan1029"
         style="font-style:normal;font-variant:normal;font-weight:600;font-stretch:normal;font-size:3.52777767px;line-height:1.10000002;font-family:'URW Gothic L';-inkscape-font-specification:'URW Gothic L Semi-Bold';text-align:center;text-anchor:middle;stroke-width:0.26458332"
         y="220.92435"
         x="73.299767"
         sodipodi:role="line">Màxim de respostes al mes</tspan><tspan
         id="tspan1031"
         style="font-style:normal;font-variant:normal;font-weight:normal;font-stretch:normal;font-size:4.23333333px;line-height:1.10000002;font-family:'URW Gothic L';-inkscape-font-specification:'URW Gothic L';text-align:center;text-anchor:middle;stroke-width:0.26458332"
         y="224.80766"
         x="73.299767"
         sodipodi:role="line">800</tspan></text>
    <text
       xml:space="preserve"
       style="font-style:normal;font-variant:normal;font-weight:600;font-stretch:normal;font-size:3.52777767px;line-height:1.10000002;font-family:'URW Gothic L';-inkscape-font-specification:'URW Gothic L Semi-Bold';text-align:center;letter-spacing:0px;word-spacing:0px;text-anchor:middle;fill:#000000;fill-opacity:1;stroke:none;stroke-width:0.26458332"
       x="123.57063"
       y="220.92435"
       id="text1039"
       inkscape:export-xdpi="300"
       inkscape:export-ydpi="300"><tspan
         sodipodi:role="line"
         x="123.57063"
         y="220.92435"
         style="font-style:normal;font-variant:normal;font-weight:600;font-stretch:normal;font-size:3.52777767px;line-height:1.10000002;font-family:'URW Gothic L';-inkscape-font-specification:'URW Gothic L Semi-Bold';text-align:center;text-anchor:middle;stroke-width:0.26458332"
         id="tspan1035">Màxim de respostes al mes</tspan><tspan
         sodipodi:role="line"
         x="123.57063"
         y="224.80766"
         style="font-style:normal;font-variant:normal;font-weight:normal;font-stretch:normal;font-size:4.23333333px;line-height:1.10000002;font-family:'URW Gothic L';-inkscape-font-specification:'URW Gothic L';text-align:center;text-anchor:middle;stroke-width:0.26458332"
         id="tspan1037">3000</tspan></text>
    <text
       id="text1064"
       y="232.0367"
       x="24.087225"
       style="font-style:normal;font-variant:normal;font-weight:600;font-stretch:normal;font-size:3.52777767px;line-height:1.10000002;font-family:'URW Gothic L';-inkscape-font-specification:'URW Gothic L Semi-Bold';text-align:center;letter-spacing:0px;word-spacing:0px;text-anchor:middle;fill:#000000;fill-opacity:1;stroke:none;stroke-width:0.26458332"
       xml:space="preserve"
       inkscape:export-xdpi="300"
       inkscape:export-ydpi="300"><tspan
         id="tspan1062"
         style="font-style:normal;font-variant:normal;font-weight:600;font-stretch:normal;font-size:3.52777767px;line-height:1.10000002;font-family:'URW Gothic L';-inkscape-font-specification:'URW Gothic L Semi-Bold';text-align:center;text-anchor:middle;stroke-width:0.26458332"
         y="232.0367"
         x="24.087225"
         sodipodi:role="line">Sense domini propi</tspan></text>
    <text
       xml:space="preserve"
       style="font-style:normal;font-variant:normal;font-weight:600;font-stretch:normal;font-size:3.52777767px;line-height:1.10000002;font-family:'URW Gothic L';-inkscape-font-specification:'URW Gothic L Semi-Bold';text-align:center;letter-spacing:0px;word-spacing:0px;text-anchor:middle;fill:#000000;fill-opacity:1;stroke:none;stroke-width:0.26458332"
       x="72.770599"
       y="230.44922"
       id="text1070"
       inkscape:export-xdpi="300"
       inkscape:export-ydpi="300"><tspan
         sodipodi:role="line"
         x="72.770599"
         y="230.44922"
         style="font-style:normal;font-variant:normal;font-weight:600;font-stretch:normal;font-size:3.52777767px;line-height:1.10000002;font-family:'URW Gothic L';-inkscape-font-specification:'URW Gothic L Semi-Bold';text-align:center;text-anchor:middle;stroke-width:0.26458332"
         id="tspan1068">Sense domini propi</tspan></text>
    <text
       id="text1074"
       y="230.44922"
       x="123.04147"
       style="font-style:normal;font-variant:normal;font-weight:600;font-stretch:normal;font-size:3.52777767px;line-height:1.10000002;font-family:'URW Gothic L';-inkscape-font-specification:'URW Gothic L Semi-Bold';text-align:center;letter-spacing:0px;word-spacing:0px;text-anchor:middle;fill:#000000;fill-opacity:1;stroke:none;stroke-width:0.26458332"
       xml:space="preserve"
       inkscape:export-xdpi="300"
       inkscape:export-ydpi="300"><tspan
         id="tspan1072"
         style="font-style:normal;font-variant:normal;font-weight:600;font-stretch:normal;font-size:3.52777767px;line-height:1.10000002;font-family:'URW Gothic L';-inkscape-font-specification:'URW Gothic L Semi-Bold';text-align:center;text-anchor:middle;stroke-width:0.26458332"
         y="230.44922"
         x="123.04147"
         sodipodi:role="line">Amb domini propi</tspan></text>
    <text
       xml:space="preserve"
       style="font-style:normal;font-variant:normal;font-weight:normal;font-stretch:normal;font-size:3.52777767px;line-height:1.10000002;font-family:'URW Gothic L';-inkscape-font-specification:'URW Gothic L';text-align:center;letter-spacing:0px;word-spacing:0px;text-anchor:middle;fill:#000000;fill-opacity:1;stroke:none;stroke-width:0.26458332"
       x="74.403725"
       y="235.48969"
       id="text1078"
       inkscape:export-xdpi="300"
       inkscape:export-ydpi="300"><tspan
         sodipodi:role="line"
         x="74.403725"
         y="235.48969"
         style="font-style:normal;font-variant:normal;font-weight:normal;font-stretch:normal;font-size:3.52777767px;line-height:1.10000002;font-family:'URW Gothic L';-inkscape-font-specification:'URW Gothic L';text-align:center;text-anchor:middle;stroke-width:0.26458332"
         id="tspan1080">10€ mes</tspan><tspan
         sodipodi:role="line"
         x="74.403725"
         y="239.37024"
         style="font-style:normal;font-variant:normal;font-weight:normal;font-stretch:normal;font-size:3.52777767px;line-height:1.10000002;font-family:'URW Gothic L';-inkscape-font-specification:'URW Gothic L';text-align:center;text-anchor:middle;stroke-width:0.26458332"
         id="tspan1084">25€ trimestre, 90€ any</tspan></text>
    <text
       id="text1090"
       y="238.1355"
       x="24.132843"
       style="font-style:normal;font-variant:normal;font-weight:normal;font-stretch:normal;font-size:3.52777767px;line-height:1.10000002;font-family:'URW Gothic L';-inkscape-font-specification:'URW Gothic L';text-align:center;letter-spacing:0px;word-spacing:0px;text-anchor:middle;fill:#000000;fill-opacity:1;stroke:none;stroke-width:0.26458332"
       xml:space="preserve"
       inkscape:export-xdpi="300"
       inkscape:export-ydpi="300"><tspan
         id="tspan1088"
         style="font-style:normal;font-variant:normal;font-weight:normal;font-stretch:normal;font-size:3.52777767px;line-height:1.10000002;font-family:'URW Gothic L';-inkscape-font-specification:'URW Gothic L';text-align:center;text-anchor:middle;stroke-width:0.26458332"
         y="238.1355"
         x="24.132843"
         sodipodi:role="line">0€</tspan></text>
    <text
       id="text1098"
       y="235.48969"
       x="122.55788"
       style="font-style:normal;font-variant:normal;font-weight:normal;font-stretch:normal;font-size:3.52777767px;line-height:1.10000002;font-family:'URW Gothic L';-inkscape-font-specification:'URW Gothic L';text-align:center;letter-spacing:0px;word-spacing:0px;text-anchor:middle;fill:#000000;fill-opacity:1;stroke:none;stroke-width:0.26458332"
       xml:space="preserve"
       inkscape:export-xdpi="300"
       inkscape:export-ydpi="300"><tspan
         id="tspan1094"
         style="font-style:normal;font-variant:normal;font-weight:normal;font-stretch:normal;font-size:3.52777767px;line-height:1.10000002;font-family:'URW Gothic L';-inkscape-font-specification:'URW Gothic L';text-align:center;text-anchor:middle;stroke-width:0.26458332"
         y="235.48969"
         x="122.55788"
         sodipodi:role="line">20€ mes</tspan><tspan
         id="tspan1096"
         style="font-style:normal;font-variant:normal;font-weight:normal;font-stretch:normal;font-size:3.52777767px;line-height:1.10000002;font-family:'URW Gothic L';-inkscape-font-specification:'URW Gothic L';text-align:center;text-anchor:middle;stroke-width:0.26458332"
         y="239.37024"
         x="122.55788"
         sodipodi:role="line">40€ trimestre, 130€ any</tspan></text>
    <text
       xml:space="preserve"
       style="font-style:normal;font-variant:normal;font-weight:600;font-stretch:normal;font-size:3.52777767px;line-height:1.10000002;font-family:'URW Gothic L';-inkscape-font-specification:'URW Gothic L Semi-Bold';text-align:center;letter-spacing:0px;word-spacing:0px;text-anchor:middle;fill:#000000;fill-opacity:1;stroke:none;stroke-width:0.26458332"
       x="75.445763"
       y="294.13763"
       id="text1102"
       inkscape:export-xdpi="300"
       inkscape:export-ydpi="300"><tspan
         sodipodi:role="line"
         x="75.445763"
         y="297.14731"
         style="font-style:normal;font-variant:normal;font-weight:600;font-stretch:normal;font-size:3.52777767px;line-height:1.10000002;font-family:'URW Gothic L';-inkscape-font-specification:'URW Gothic L Semi-Bold';text-align:center;text-anchor:middle;stroke-width:0.26458332"
         id="tspan1100" /></text>
    <g
       id="g4575"
       transform="translate(-40.216686)"
       inkscape:export-xdpi="300"
       inkscape:export-ydpi="300">
      <g
         inkscape:export-ydpi="300"
         inkscape:export-xdpi="300"
         transform="matrix(0.00588668,0,0,0.00588668,59.095761,291.16752)"
         id="g1157"
         style="fill:#000000">
        <path
           id="path1155"
           d="m 390.5,116.59 c 5.646,0 11.67,0.303 18.075,0.923 39.136,3.823 84.396,39.641 89.915,108.29 V 248.65 C 493.376,314.365 443.76,395.41 298.79,497.08 153.81,395.4 104.2,314.36 99.09,248.65 v -22.847 c 5.516,-68.649 50.727,-104.47 89.863,-108.29 6.428,-0.62 12.453,-0.923 18.098,-0.923 45.209,0 66.905,19.529 91.737,49.12 24.83,-29.59 46.5,-49.12 91.7,-49.12 m 0,43.68 c -25.97,0 -36.805,7.963 -58.245,33.516 l -33.464,39.882 -33.49,-39.882 c -21.416,-25.553 -32.251,-33.516 -58.247,-33.516 -4.254,0 -8.912,0.241 -13.847,0.723 -18.072,1.757 -46.171,20.996 -50.424,66.7 v 19.125 c 5.316,57.374 57.765,123.38 156.01,196.41 98.241,-73.04 150.69,-139.03 156.01,-196.41 v -19.13 c -4.277,-45.691 -32.401,-64.943 -50.424,-66.7 -4.97,-0.48 -9.63,-0.72 -13.89,-0.72 z"
           inkscape:connector-curvature="0"
           style="fill:#000000" />
      </g>
      <path
         inkscape:export-ydpi="300"
         inkscape:export-xdpi="300"
         sodipodi:nodetypes="ccccc"
         inkscape:connector-curvature="0"
         id="path1177"
         d="m 60.952797,292.67462 c -0.480004,-1.12613 -1.184896,-0.40085 -1.018044,0.0897 0.164418,0.53862 0.549661,0.64523 0.919836,1.01239 0.571771,-0.33038 1.409762,-1.39135 0.539784,-1.6657 -0.33753,0.0737 -0.481865,0.26328 -0.441576,0.56366"
         style="fill:#000000;stroke:#000000;stroke-width:0.18353526px;stroke-linecap:butt;stroke-linejoin:miter;stroke-opacity:1" />
    </g>
    <text
       inkscape:export-ydpi="300"
       inkscape:export-xdpi="300"
       xml:space="preserve"
       style="font-style:normal;font-variant:normal;font-weight:600;font-stretch:normal;font-size:3.52777767px;line-height:1;font-family:'URW Gothic L';-inkscape-font-specification:'URW Gothic L Semi-Bold';text-align:center;letter-spacing:0px;word-spacing:0px;text-anchor:middle;fill:#000000;fill-opacity:1;stroke:none;stroke-width:0.26458332"
       x="53.427975"
       y="294.11517"
       id="text4568"><tspan
         sodipodi:role="line"
         x="53.427975"
         y="294.11517"
         style="font-style:normal;font-variant:normal;font-weight:600;font-stretch:normal;font-size:3.52777767px;line-height:1;font-family:'URW Gothic L';-inkscape-font-specification:'URW Gothic L Semi-Bold';text-align:center;text-anchor:middle;stroke-width:0.26458332"
         id="tspan4566">Formularis ètics <tspan
   style="font-style:normal;font-variant:normal;font-weight:normal;font-stretch:normal;font-size:3.52777767px;font-family:'URW Gothic L';-inkscape-font-specification:'URW Gothic L'"
   id="tspan4570">amb </tspan>liberaforms.org</tspan></text>
    <g
       id="g4585"
       transform="translate(25.40001)"
       inkscape:export-xdpi="300"
       inkscape:export-ydpi="300">
      <g
         style="fill:#000000"
         id="g4581"
         transform="matrix(0.00588668,0,0,0.00588668,59.095761,291.16752)"
         inkscape:export-xdpi="300"
         inkscape:export-ydpi="300">
        <path
           style="fill:#000000"
           inkscape:connector-curvature="0"
           d="m 390.5,116.59 c 5.646,0 11.67,0.303 18.075,0.923 39.136,3.823 84.396,39.641 89.915,108.29 V 248.65 C 493.376,314.365 443.76,395.41 298.79,497.08 153.81,395.4 104.2,314.36 99.09,248.65 v -22.847 c 5.516,-68.649 50.727,-104.47 89.863,-108.29 6.428,-0.62 12.453,-0.923 18.098,-0.923 45.209,0 66.905,19.529 91.737,49.12 24.83,-29.59 46.5,-49.12 91.7,-49.12 m 0,43.68 c -25.97,0 -36.805,7.963 -58.245,33.516 l -33.464,39.882 -33.49,-39.882 c -21.416,-25.553 -32.251,-33.516 -58.247,-33.516 -4.254,0 -8.912,0.241 -13.847,0.723 -18.072,1.757 -46.171,20.996 -50.424,66.7 v 19.125 c 5.316,57.374 57.765,123.38 156.01,196.41 98.241,-73.04 150.69,-139.03 156.01,-196.41 v -19.13 c -4.277,-45.691 -32.401,-64.943 -50.424,-66.7 -4.97,-0.48 -9.63,-0.72 -13.89,-0.72 z"
           id="path4579" />
      </g>
      <path
         style="fill:#000000;stroke:#000000;stroke-width:0.18353526px;stroke-linecap:butt;stroke-linejoin:miter;stroke-opacity:1"
         d="m 60.952797,292.67462 c -0.480004,-1.12613 -1.184896,-0.40085 -1.018044,0.0897 0.164418,0.53862 0.549661,0.64523 0.919836,1.01239 0.571771,-0.33038 1.409762,-1.39135 0.539784,-1.6657 -0.33753,0.0737 -0.481865,0.26328 -0.441576,0.56366"
         id="path4583"
         inkscape:connector-curvature="0"
         sodipodi:nodetypes="ccccc"
         inkscape:export-xdpi="300"
         inkscape:export-ydpi="300" />
    </g>
  </g>
</svg>
