<?xml version="1.0" encoding="UTF-8" standalone="no"?>
<svg
   xmlns:dc="http://purl.org/dc/elements/1.1/"
   xmlns:cc="http://creativecommons.org/ns#"
   xmlns:rdf="http://www.w3.org/1999/02/22-rdf-syntax-ns#"
   xmlns:svg="http://www.w3.org/2000/svg"
   xmlns="http://www.w3.org/2000/svg"
   xmlns:sodipodi="http://sodipodi.sourceforge.net/DTD/sodipodi-0.dtd"
   xmlns:inkscape="http://www.inkscape.org/namespaces/inkscape"
   width="210mm"
   height="297mm"
   viewBox="0 0 210 297"
   version="1.1"
   id="svg1265"
   inkscape:version="1.0.2 (e86c870879, 2021-01-15, custom)"
   sodipodi:docname="liberafoms-modalitats-eu.svg">
  <defs
     id="defs1259" />
  <sodipodi:namedview
     id="base"
     pagecolor="#ffffff"
     bordercolor="#666666"
     borderopacity="1.0"
     inkscape:pageopacity="0.0"
     inkscape:pageshadow="2"
     inkscape:zoom="0.7"
     inkscape:cx="387.45706"
     inkscape:cy="565.11105"
     inkscape:document-units="mm"
     inkscape:current-layer="layer1"
     inkscape:document-rotation="0"
     showgrid="false"
     inkscape:window-width="1601"
     inkscape:window-height="1020"
     inkscape:window-x="701"
     inkscape:window-y="169"
     inkscape:window-maximized="0" />
  <metadata
     id="metadata1262">
    <rdf:RDF>
      <cc:Work
         rdf:about="">
        <dc:format>image/svg+xml</dc:format>
        <dc:type
           rdf:resource="http://purl.org/dc/dcmitype/StillImage" />
        <dc:title></dc:title>
      </cc:Work>
    </rdf:RDF>
  </metadata>
  <g
     inkscape:label="Geruza 1"
     inkscape:groupmode="layer"
     id="layer1">
    <rect
       inkscape:export-ydpi="300"
       inkscape:export-xdpi="300"
       style="fill:#ffe680;fill-opacity:1;stroke:none;stroke-width:0.531887;stroke-linecap:square;stroke-miterlimit:4;stroke-dasharray:none;stroke-dashoffset:0;stroke-opacity:1;paint-order:fill markers stroke"
       id="rect4593-5"
       width="49.299999"
       height="104.47125"
       x="31.816711"
       y="54.422512" />
    <rect
       inkscape:export-ydpi="300"
       inkscape:export-xdpi="300"
       y="54.422512"
       x="80.941772"
       height="104.47125"
       width="49.299999"
       id="rect4595-3"
       style="fill:#bcd35f;fill-opacity:1;stroke:none;stroke-width:0.531887;stroke-linecap:square;stroke-miterlimit:4;stroke-dasharray:none;stroke-dashoffset:0;stroke-opacity:1;paint-order:fill markers stroke" />
    <rect
       inkscape:export-ydpi="300"
       inkscape:export-xdpi="300"
       style="fill:#ddafe9;fill-opacity:1;stroke:none;stroke-width:0.531887;stroke-linecap:square;stroke-miterlimit:4;stroke-dasharray:none;stroke-dashoffset:0;stroke-opacity:1;paint-order:fill markers stroke"
       id="rect4597-5"
       width="49.299999"
       height="104.47125"
       x="130.24176"
       y="54.422512" />
    <text
       inkscape:export-ydpi="300"
       inkscape:export-xdpi="300"
       xml:space="preserve"
       style="font-style:normal;font-variant:normal;font-weight:normal;font-stretch:normal;font-size:5.64444px;line-height:1;font-family:'URW Gothic L';-inkscape-font-specification:'URW Gothic L';text-align:center;letter-spacing:0px;word-spacing:0px;text-anchor:middle;fill:#000000;fill-opacity:1;stroke:none;stroke-width:0.264583"
       x="55.620235"
       y="65.052361"
       id="text4603-6"><tspan
         sodipodi:role="line"
         x="55.620235"
         y="65.052361"
         style="font-style:normal;font-variant:normal;font-weight:600;font-stretch:normal;font-size:5.64444px;line-height:1;font-family:'URW Gothic L';-inkscape-font-specification:'URW Gothic L Semi-Bold';text-align:center;text-anchor:middle;stroke-width:0.264583"
         id="tspan544">Doako</tspan><tspan
         sodipodi:role="line"
         x="55.620235"
         y="70.6968"
         style="font-style:normal;font-variant:normal;font-weight:normal;font-stretch:normal;font-size:5.64444px;line-height:1;font-family:'URW Gothic L';-inkscape-font-specification:'URW Gothic L Semi-Bold';text-align:center;text-anchor:middle;stroke-width:0.264583"
         id="tspan557">modalitatea</tspan></text>
    <text
       inkscape:export-ydpi="300"
       inkscape:export-xdpi="300"
       id="text4611-1"
       y="62.268185"
       x="105.4272"
       style="font-style:normal;font-variant:normal;font-weight:normal;font-stretch:normal;font-size:5.64444px;line-height:1;font-family:'URW Gothic L';-inkscape-font-specification:'URW Gothic L';text-align:center;letter-spacing:0px;word-spacing:0px;text-anchor:middle;fill:#000000;fill-opacity:1;stroke:none;stroke-width:0.264583"
       xml:space="preserve"><tspan
         style="font-style:normal;font-variant:normal;font-weight:600;font-stretch:normal;font-size:5.64444px;line-height:1;font-family:'URW Gothic L';-inkscape-font-specification:'URW Gothic L Semi-Bold';text-align:center;text-anchor:middle;stroke-width:0.264583"
         y="62.268185"
         x="105.4272"
         sodipodi:role="line"
         id="tspan553">Domeinu gabeko</tspan><tspan
         style="font-style:normal;font-variant:normal;font-weight:600;font-stretch:normal;font-size:5.64444px;line-height:1;font-family:'URW Gothic L';-inkscape-font-specification:'URW Gothic L Semi-Bold';text-align:center;text-anchor:middle;stroke-width:0.264583"
         y="67.912621"
         x="105.4272"
         sodipodi:role="line"
         id="tspan561">kuota</tspan><tspan
         style="font-style:normal;font-variant:normal;font-weight:normal;font-stretch:normal;font-size:5.64444px;line-height:1;font-family:'URW Gothic L';-inkscape-font-specification:'URW Gothic L Semi-Bold';text-align:center;text-anchor:middle;stroke-width:0.264583"
         y="73.55706"
         x="105.4272"
         sodipodi:role="line"
         id="tspan555">modalitatea</tspan></text>
    <text
       inkscape:export-ydpi="300"
       inkscape:export-xdpi="300"
       xml:space="preserve"
       style="font-style:normal;font-variant:normal;font-weight:normal;font-stretch:normal;font-size:5.64444px;line-height:1;font-family:'URW Gothic L';-inkscape-font-specification:'URW Gothic L';text-align:center;letter-spacing:0px;word-spacing:0px;text-anchor:middle;fill:#000000;fill-opacity:1;stroke:none;stroke-width:0.264583"
       x="154.57445"
       y="62.406582"
       id="text4619-9"><tspan
         sodipodi:role="line"
         x="154.57445"
         y="62.406582"
         style="font-style:normal;font-variant:normal;font-weight:600;font-stretch:normal;font-size:5.64444px;line-height:1;font-family:'URW Gothic L';-inkscape-font-specification:'URW Gothic L Semi-Bold';text-align:center;text-anchor:middle;stroke-width:0.264583"
         id="tspan4617-0">Domeinudun</tspan><tspan
         sodipodi:role="line"
         x="154.57445"
         y="68.051018"
         style="font-style:normal;font-variant:normal;font-weight:600;font-stretch:normal;font-size:5.64444px;line-height:1;font-family:'URW Gothic L';-inkscape-font-specification:'URW Gothic L Semi-Bold';text-align:center;text-anchor:middle;stroke-width:0.264583"
         id="tspan568">kuota</tspan><tspan
         sodipodi:role="line"
         x="154.57445"
         y="73.695457"
         style="font-style:normal;font-variant:normal;font-weight:normal;font-stretch:normal;font-size:5.64444px;line-height:1;font-family:'URW Gothic L';-inkscape-font-specification:'URW Gothic L Semi-Bold';text-align:center;text-anchor:middle;stroke-width:0.264583"
         id="tspan570">modalitatea</tspan></text>
    <text
       inkscape:export-ydpi="300"
       inkscape:export-xdpi="300"
       xml:space="preserve"
       style="font-style:normal;font-variant:normal;font-weight:600;font-stretch:normal;font-size:4.9389px;line-height:1;font-family:'URW Gothic L';-inkscape-font-specification:'URW Gothic L Semi-Bold';text-align:center;letter-spacing:0px;word-spacing:0px;text-anchor:middle;fill:#000000;fill-opacity:1;stroke:none;stroke-width:0.264583"
       x="79.823189"
       y="113.62942"
       id="text4627-6"><tspan
         sodipodi:role="line"
         x="79.823189"
         y="113.62942"
         style="font-style:normal;font-variant:normal;font-weight:600;font-stretch:normal;font-size:4.9389px;line-height:1;font-family:'URW Gothic L';-inkscape-font-specification:'URW Gothic L Semi-Bold';text-align:center;text-anchor:middle;stroke-width:0.264583"
         id="tspan4625-2">Erabiltzaile funtzionalitateak</tspan></text>
    <text
       inkscape:export-ydpi="300"
       inkscape:export-xdpi="300"
       id="text4653-6"
       y="118.84944"
       x="41.3335"
       style="font-style:normal;font-variant:normal;font-weight:normal;font-stretch:normal;font-size:3.88056px;line-height:1;font-family:'URW Gothic L';-inkscape-font-specification:'URW Gothic L';text-align:start;letter-spacing:0px;word-spacing:0px;text-anchor:start;fill:#000000;fill-opacity:1;stroke:none;stroke-width:0.264583"
       xml:space="preserve"><tspan
         id="tspan4631-1"
         style="font-size:3.88056px;line-height:1;text-align:start;text-anchor:start;stroke-width:0.264583"
         y="118.84944"
         x="41.3335"
         sodipodi:role="line">Lineako galdetegiak sortu eta argitaratu</tspan><tspan
         id="tspan4633-8"
         style="font-size:3.88056px;line-height:1;text-align:start;text-anchor:start;stroke-width:0.264583"
         y="122.73"
         x="41.3335"
         sodipodi:role="line">Taula, grafiko edo CSV bidez kontsultatu</tspan><tspan
         id="tspan4635-7"
         style="font-size:3.88056px;line-height:1;text-align:start;text-anchor:start;stroke-width:0.264583"
         y="126.61056"
         x="41.3335"
         sodipodi:role="line">'Esker aunitz!' ikuspegia zehaztu</tspan><tspan
         id="tspan4637-9"
         style="font-size:3.88056px;line-height:1;text-align:start;text-anchor:start;stroke-width:0.264583"
         y="130.49113"
         x="41.3335"
         sodipodi:role="line">Jakinarazpenak posta elektronikoz jaso</tspan><tspan
         id="tspan4639-2"
         style="font-size:3.88056px;line-height:1;text-align:start;text-anchor:start;stroke-width:0.264583"
         y="134.37169"
         x="41.3335"
         sodipodi:role="line">Testu propioak zehaztu</tspan><tspan
         id="tspan4641-0"
         style="font-size:3.88056px;line-height:1;text-align:start;text-anchor:start;stroke-width:0.264583"
         y="138.25224"
         x="41.3335"
         sodipodi:role="line">Jaso izanaren agiria sartu</tspan><tspan
         id="tspan4643-2"
         style="font-size:3.88056px;line-height:1;text-align:start;text-anchor:start;stroke-width:0.264583"
         y="142.13281"
         x="41.3335"
         sodipodi:role="line">Zehaztu data eta eremu numerikoak</tspan><tspan
         id="tspan4645-3"
         style="font-size:3.88056px;line-height:1;text-align:start;text-anchor:start;stroke-width:0.264583"
         y="146.01337"
         x="41.3335"
         sodipodi:role="line">Zehaztu iraungitze ikuspegia</tspan><tspan
         id="tspan4647-7"
         style="font-size:3.88056px;line-height:1;text-align:start;text-anchor:start;stroke-width:0.264583"
         y="149.89392"
         x="41.3335"
         sodipodi:role="line">Galdetegia beste web-orri batean txertatu</tspan><tspan
         id="tspan4649-5"
         y="153.77449"
         x="41.3335"
         sodipodi:role="line"
         style="stroke-width:0.264583" /><tspan
         id="tspan4651-9"
         y="157.65504"
         x="41.3335"
         sodipodi:role="line"
         style="stroke-width:0.264583" /></text>
    <text
       inkscape:export-ydpi="300"
       inkscape:export-xdpi="300"
       id="text4659-2"
       y="112.50368"
       x="155.32166"
       style="font-style:normal;font-variant:normal;font-weight:600;font-stretch:normal;font-size:4.9389px;line-height:1;font-family:'URW Gothic L';-inkscape-font-specification:'URW Gothic L Semi-Bold';text-align:center;letter-spacing:0px;word-spacing:0px;text-anchor:middle;fill:#000000;fill-opacity:1;stroke:none;stroke-width:0.264583"
       xml:space="preserve"><tspan
         id="tspan4657-8"
         style="font-style:normal;font-variant:normal;font-weight:600;font-stretch:normal;font-size:4.9389px;line-height:1;font-family:'URW Gothic L';-inkscape-font-specification:'URW Gothic L Semi-Bold';text-align:center;text-anchor:middle;stroke-width:0.264583"
         y="112.50368"
         x="155.32166"
         sodipodi:role="line">Administratzaile</tspan><tspan
         style="font-style:normal;font-variant:normal;font-weight:600;font-stretch:normal;font-size:4.9389px;line-height:1;font-family:'URW Gothic L';-inkscape-font-specification:'URW Gothic L Semi-Bold';text-align:center;text-anchor:middle;stroke-width:0.264583"
         y="117.44259"
         x="155.32166"
         sodipodi:role="line"
         id="tspan592">funtzionalitateak</tspan></text>
    <text
       inkscape:export-ydpi="300"
       inkscape:export-xdpi="300"
       xml:space="preserve"
       style="font-style:normal;font-variant:normal;font-weight:normal;font-stretch:normal;font-size:3.52777px;line-height:1;font-family:'URW Gothic L';-inkscape-font-specification:'URW Gothic L';text-align:start;letter-spacing:0px;word-spacing:0px;text-anchor:start;fill:#000000;fill-opacity:1;stroke:none;stroke-width:0.264583"
       x="130.93689"
       y="123.89523"
       id="text4691-9"><tspan
         id="tspan4665-7"
         sodipodi:role="line"
         x="130.93689"
         y="123.89523"
         style="font-size:3.52777px;line-height:1;text-align:start;text-anchor:start;stroke-width:0.264583">Erabiltzaileak administratu</tspan><tspan
         id="tspan4669-6"
         sodipodi:role="line"
         x="130.93689"
         y="127.423"
         style="font-size:3.52777px;line-height:1;text-align:start;text-anchor:start;stroke-width:0.264583">Partekatu daitezkeen</tspan><tspan
         sodipodi:role="line"
         x="130.93689"
         y="130.95078"
         style="font-size:3.52777px;line-height:1;text-align:start;text-anchor:start;stroke-width:0.264583"
         id="tspan596">erabilera-baldintzak zehaztu</tspan><tspan
         id="tspan4671-1"
         sodipodi:role="line"
         x="130.93689"
         y="134.47855"
         style="font-size:3.52777px;line-height:1;text-align:start;text-anchor:start;stroke-width:0.264583">Taldean lan egin</tspan><tspan
         id="tspan4673-2"
         sodipodi:role="line"
         x="130.93689"
         y="138.00632"
         style="font-size:3.52777px;line-height:1;text-align:start;text-anchor:start;stroke-width:0.264583">SMTP konfiguratu</tspan><tspan
         id="tspan4675-9"
         sodipodi:role="line"
         x="130.93689"
         y="141.53409"
         style="font-size:3.52777px;line-height:1;text-align:start;text-anchor:start;stroke-width:0.264583">Webgunea pertsonalizatu</tspan><tspan
         id="tspan4677-3"
         sodipodi:role="line"
         x="130.93689"
         y="145.06186"
         style="font-size:3.52777px;line-height:1;text-align:start;text-anchor:start;stroke-width:0.264583">   Hasiera-orriko testua</tspan><tspan
         id="tspan4679-1"
         sodipodi:role="line"
         x="130.93689"
         y="148.58963"
         style="font-size:3.52777px;line-height:1;text-align:start;text-anchor:start;stroke-width:0.264583">   Webgunearen izena</tspan><tspan
         id="tspan4681-9"
         sodipodi:role="line"
         x="130.93689"
         y="152.11739"
         style="font-size:3.52777px;line-height:1;text-align:start;text-anchor:start;stroke-width:0.264583">   Ikonoa (favicon)</tspan><tspan
         id="tspan4683-4"
         sodipodi:role="line"
         x="130.93689"
         y="155.64516"
         style="font-size:3.52777px;line-height:1;text-align:start;text-anchor:start;stroke-width:0.264583">   Menuaren kolorea</tspan><tspan
         id="tspan4685-7"
         sodipodi:role="line"
         x="130.93689"
         y="159.17293"
         style="stroke-width:0.264583" /><tspan
         sodipodi:role="line"
         x="130.93689"
         y="162.7007"
         id="tspan4687-8"
         style="stroke-width:0.264583" /><tspan
         sodipodi:role="line"
         x="130.93689"
         y="166.22847"
         id="tspan4689-4"
         style="stroke-width:0.264583" /></text>
    <text
       inkscape:export-ydpi="300"
       inkscape:export-xdpi="300"
       id="text4697-5"
       y="83.082481"
       x="56.168739"
       style="font-style:normal;font-variant:normal;font-weight:600;font-stretch:normal;font-size:3.52777px;line-height:1.1;font-family:'URW Gothic L';-inkscape-font-specification:'URW Gothic L Semi-Bold';text-align:center;letter-spacing:0px;word-spacing:0px;text-anchor:middle;fill:#000000;fill-opacity:1;stroke:none;stroke-width:0.264583"
       xml:space="preserve"><tspan
         id="tspan4693-0"
         style="font-style:normal;font-variant:normal;font-weight:600;font-stretch:normal;font-size:3.52777px;line-height:1.1;font-family:'URW Gothic L';-inkscape-font-specification:'URW Gothic L Semi-Bold';text-align:center;text-anchor:middle;stroke-width:0.264583"
         y="83.082481"
         x="56.168739"
         sodipodi:role="line">Urtean gehienez ere</tspan><tspan
         id="tspan4695-3"
         style="font-style:normal;font-variant:normal;font-weight:normal;font-stretch:normal;font-size:4.23333px;line-height:1.1;font-family:'URW Gothic L';-inkscape-font-specification:'URW Gothic L';text-align:center;text-anchor:middle;stroke-width:0.264583"
         y="87.519714"
         x="56.168739"
         sodipodi:role="line">200 erantzun</tspan></text>
    <text
       inkscape:export-ydpi="300"
       inkscape:export-xdpi="300"
       xml:space="preserve"
       style="font-style:normal;font-variant:normal;font-weight:600;font-stretch:normal;font-size:3.52777px;line-height:1.1;font-family:'URW Gothic L';-inkscape-font-specification:'URW Gothic L Semi-Bold';text-align:center;letter-spacing:0px;word-spacing:0px;text-anchor:middle;fill:#000000;fill-opacity:1;stroke:none;stroke-width:0.264583"
       x="105.38126"
       y="83.082481"
       id="text4703-6"><tspan
         sodipodi:role="line"
         x="105.38126"
         y="83.082481"
         style="font-style:normal;font-variant:normal;font-weight:bold;font-stretch:normal;font-size:4.23333px;line-height:1.1;font-family:'URW Gothic L';-inkscape-font-specification:'URW Gothic L';text-align:center;text-anchor:middle;stroke-width:0.264583"
         id="tspan4701-0">Urtean gehienez ere</tspan><tspan
         sodipodi:role="line"
         x="105.38126"
         y="87.739143"
         style="font-style:normal;font-variant:normal;font-weight:normal;font-stretch:normal;font-size:4.23333px;line-height:1.1;font-family:'URW Gothic L';-inkscape-font-specification:'URW Gothic L';text-align:center;text-anchor:middle;stroke-width:0.264583"
         id="tspan578">800 erantzun</tspan></text>
    <text
       inkscape:export-ydpi="300"
       inkscape:export-xdpi="300"
       id="text4709-6"
       y="83.082481"
       x="154.59381"
       style="font-style:normal;font-variant:normal;font-weight:600;font-stretch:normal;font-size:3.52777px;line-height:1.1;font-family:'URW Gothic L';-inkscape-font-specification:'URW Gothic L Semi-Bold';text-align:center;letter-spacing:0px;word-spacing:0px;text-anchor:middle;fill:#000000;fill-opacity:1;stroke:none;stroke-width:0.264583"
       xml:space="preserve"><tspan
         id="tspan4707-2"
         style="font-style:normal;font-variant:normal;font-weight:bold;font-stretch:normal;font-size:4.23333px;line-height:1.1;font-family:'URW Gothic L';-inkscape-font-specification:'URW Gothic L';text-align:center;text-anchor:middle;stroke-width:0.264583"
         y="83.082481"
         x="154.59381"
         sodipodi:role="line">Urtean gehienez ere</tspan><tspan
         style="font-style:normal;font-variant:normal;font-weight:normal;font-stretch:normal;font-size:4.23333px;line-height:1.1;font-family:'URW Gothic L';-inkscape-font-specification:'URW Gothic L';text-align:center;text-anchor:middle;stroke-width:0.264583"
         y="87.739143"
         x="154.59381"
         sodipodi:role="line"
         id="tspan584">3000 erantzun</tspan></text>
    <text
       inkscape:export-ydpi="300"
       inkscape:export-xdpi="300"
       xml:space="preserve"
       style="font-style:normal;font-variant:normal;font-weight:600;font-stretch:normal;font-size:3.52777px;line-height:1.1;font-family:'URW Gothic L';-inkscape-font-specification:'URW Gothic L Semi-Bold';text-align:center;letter-spacing:0px;word-spacing:0px;text-anchor:middle;fill:#000000;fill-opacity:1;stroke:none;stroke-width:0.264583"
       x="55.639572"
       y="94.194817"
       id="text4713-0"><tspan
         sodipodi:role="line"
         x="55.639572"
         y="94.194817"
         style="font-style:normal;font-variant:normal;font-weight:600;font-stretch:normal;font-size:3.52777px;line-height:1.1;font-family:'URW Gothic L';-inkscape-font-specification:'URW Gothic L Semi-Bold';text-align:center;text-anchor:middle;stroke-width:0.264583"
         id="tspan4711-6">Domeinu propiorik gabe</tspan></text>
    <text
       inkscape:export-ydpi="300"
       inkscape:export-xdpi="300"
       id="text4717-1"
       y="92.607353"
       x="104.32294"
       style="font-style:normal;font-variant:normal;font-weight:600;font-stretch:normal;font-size:3.52777px;line-height:1.1;font-family:'URW Gothic L';-inkscape-font-specification:'URW Gothic L Semi-Bold';text-align:center;letter-spacing:0px;word-spacing:0px;text-anchor:middle;fill:#000000;fill-opacity:1;stroke:none;stroke-width:0.264583"
       xml:space="preserve"><tspan
         id="tspan4715-5"
         style="font-style:normal;font-variant:normal;font-weight:600;font-stretch:normal;font-size:3.52777px;line-height:1.1;font-family:'URW Gothic L';-inkscape-font-specification:'URW Gothic L Semi-Bold';text-align:center;text-anchor:middle;stroke-width:0.264583"
         y="92.607353"
         x="104.32294"
         sodipodi:role="line">Domeinu propiorik gabe</tspan></text>
    <text
       inkscape:export-ydpi="300"
       inkscape:export-xdpi="300"
       xml:space="preserve"
       style="font-style:normal;font-variant:normal;font-weight:600;font-stretch:normal;font-size:3.52777px;line-height:1.1;font-family:'URW Gothic L';-inkscape-font-specification:'URW Gothic L Semi-Bold';text-align:center;letter-spacing:0px;word-spacing:0px;text-anchor:middle;fill:#000000;fill-opacity:1;stroke:none;stroke-width:0.264583"
       x="154.59381"
       y="92.607353"
       id="text4721-5"><tspan
         sodipodi:role="line"
         x="154.59381"
         y="92.607353"
         style="font-style:normal;font-variant:normal;font-weight:600;font-stretch:normal;font-size:3.52777px;line-height:1.1;font-family:'URW Gothic L';-inkscape-font-specification:'URW Gothic L Semi-Bold';text-align:center;text-anchor:middle;stroke-width:0.264583"
         id="tspan4719-4">Domeinu propioarekin</tspan></text>
    <text
       inkscape:export-ydpi="300"
       inkscape:export-xdpi="300"
       id="text4727-7"
       y="97.653778"
       x="105.48917"
       style="font-style:normal;font-variant:normal;font-weight:normal;font-stretch:normal;font-size:3.52777px;line-height:1.1;font-family:'URW Gothic L';-inkscape-font-specification:'URW Gothic L';text-align:center;letter-spacing:0px;word-spacing:0px;text-anchor:middle;fill:#000000;fill-opacity:1;stroke:none;stroke-width:0.264583"
       xml:space="preserve"><tspan
         id="tspan4723-6"
         style="font-style:normal;font-variant:normal;font-weight:normal;font-stretch:normal;font-size:3.52777px;line-height:1.1;font-family:'URW Gothic L';-inkscape-font-specification:'URW Gothic L';text-align:center;text-anchor:middle;stroke-width:0.264583"
         y="97.653778"
         x="105.48917"
         sodipodi:role="line">10€ hilabetean</tspan><tspan
         id="tspan4725-5"
         style="font-style:normal;font-variant:normal;font-weight:normal;font-stretch:normal;font-size:3.52777px;line-height:1.1;font-family:'URW Gothic L';-inkscape-font-specification:'URW Gothic L';text-align:center;text-anchor:middle;stroke-width:0.264583"
         y="101.53432"
         x="105.48917"
         sodipodi:role="line">25€ hiruhilekoan</tspan><tspan
         style="font-style:normal;font-variant:normal;font-weight:normal;font-stretch:normal;font-size:3.52777px;line-height:1.1;font-family:'URW Gothic L';-inkscape-font-specification:'URW Gothic L';text-align:center;text-anchor:middle;stroke-width:0.264583"
         y="105.41487"
         x="105.48917"
         sodipodi:role="line"
         id="tspan588">90€ urtean</tspan></text>
    <text
       inkscape:export-ydpi="300"
       inkscape:export-xdpi="300"
       xml:space="preserve"
       style="font-style:normal;font-variant:normal;font-weight:normal;font-stretch:normal;font-size:3.52777px;line-height:1.1;font-family:'URW Gothic L';-inkscape-font-specification:'URW Gothic L';text-align:center;letter-spacing:0px;word-spacing:0px;text-anchor:middle;fill:#000000;fill-opacity:1;stroke:none;stroke-width:0.264583"
       x="55.685188"
       y="100.29362"
       id="text4731-6"><tspan
         sodipodi:role="line"
         x="55.685188"
         y="100.29362"
         style="font-style:normal;font-variant:normal;font-weight:normal;font-stretch:normal;font-size:3.52777px;line-height:1.1;font-family:'URW Gothic L';-inkscape-font-specification:'URW Gothic L';text-align:center;text-anchor:middle;stroke-width:0.264583"
         id="tspan4729-9">0€</tspan></text>
    <text
       inkscape:export-ydpi="300"
       inkscape:export-xdpi="300"
       xml:space="preserve"
       style="font-style:normal;font-variant:normal;font-weight:normal;font-stretch:normal;font-size:3.52777px;line-height:1.1;font-family:'URW Gothic L';-inkscape-font-specification:'URW Gothic L';text-align:center;letter-spacing:0px;word-spacing:0px;text-anchor:middle;fill:#000000;fill-opacity:1;stroke:none;stroke-width:0.264583"
       x="154.1102"
       y="97.647804"
       id="text4737-3"><tspan
         sodipodi:role="line"
         x="154.1102"
         y="97.647804"
         style="font-style:normal;font-variant:normal;font-weight:normal;font-stretch:normal;font-size:3.52777px;line-height:1.1;font-family:'URW Gothic L';-inkscape-font-specification:'URW Gothic L';text-align:center;text-anchor:middle;stroke-width:0.264583"
         id="tspan4733-7">20€ hilabetean</tspan><tspan
         sodipodi:role="line"
         x="154.1102"
         y="101.52835"
         style="font-style:normal;font-variant:normal;font-weight:normal;font-stretch:normal;font-size:3.52777px;line-height:1.1;font-family:'URW Gothic L';-inkscape-font-specification:'URW Gothic L';text-align:center;text-anchor:middle;stroke-width:0.264583"
         id="tspan4735-4">40€ hiruhilekoan</tspan><tspan
         sodipodi:role="line"
         x="154.1102"
         y="105.4089"
         style="font-style:normal;font-variant:normal;font-weight:normal;font-stretch:normal;font-size:3.52777px;line-height:1.1;font-family:'URW Gothic L';-inkscape-font-specification:'URW Gothic L';text-align:center;text-anchor:middle;stroke-width:0.264583"
         id="tspan586">130€ urtean</tspan></text>
    <g
       inkscape:export-ydpi="300"
       inkscape:export-xdpi="300"
       transform="translate(-10.781007,-137.84188)"
       id="g4745-5">
      <g
         style="fill:#000000"
         id="g4741-2"
         transform="matrix(0.00588668,0,0,0.00588668,59.095761,291.16752)"
         inkscape:export-xdpi="300"
         inkscape:export-ydpi="300">
        <path
           style="fill:#000000"
           inkscape:connector-curvature="0"
           d="m 390.5,116.59 c 5.646,0 11.67,0.303 18.075,0.923 39.136,3.823 84.396,39.641 89.915,108.29 V 248.65 C 493.376,314.365 443.76,395.41 298.79,497.08 153.81,395.4 104.2,314.36 99.09,248.65 v -22.847 c 5.516,-68.649 50.727,-104.47 89.863,-108.29 6.428,-0.62 12.453,-0.923 18.098,-0.923 45.209,0 66.905,19.529 91.737,49.12 24.83,-29.59 46.5,-49.12 91.7,-49.12 m 0,43.68 c -25.97,0 -36.805,7.963 -58.245,33.516 l -33.464,39.882 -33.49,-39.882 c -21.416,-25.553 -32.251,-33.516 -58.247,-33.516 -4.254,0 -8.912,0.241 -13.847,0.723 -18.072,1.757 -46.171,20.996 -50.424,66.7 v 19.125 c 5.316,57.374 57.765,123.38 156.01,196.41 98.241,-73.04 150.69,-139.03 156.01,-196.41 v -19.13 c -4.277,-45.691 -32.401,-64.943 -50.424,-66.7 -4.97,-0.48 -9.63,-0.72 -13.89,-0.72 z"
           id="path4739-5" />
      </g>
      <path
         style="fill:#000000;stroke:#000000;stroke-width:0.183535px;stroke-linecap:butt;stroke-linejoin:miter;stroke-opacity:1"
         d="m 60.952797,292.67462 c -0.480004,-1.12613 -1.184896,-0.40085 -1.018044,0.0897 0.164418,0.53862 0.549661,0.64523 0.919836,1.01239 0.571771,-0.33038 1.409762,-1.39135 0.539784,-1.6657 -0.33753,0.0737 -0.481865,0.26328 -0.441576,0.56366"
         id="path4743-4"
         inkscape:connector-curvature="0"
         sodipodi:nodetypes="ccccc"
         inkscape:export-xdpi="300"
         inkscape:export-ydpi="300" />
    </g>
    <text
       id="text4751-7"
       y="156.27333"
       x="82.33448"
       style="font-style:normal;font-variant:normal;font-weight:600;font-stretch:normal;font-size:3.52777px;line-height:1;font-family:'URW Gothic L';-inkscape-font-specification:'URW Gothic L Semi-Bold';text-align:center;letter-spacing:0px;word-spacing:0px;text-anchor:middle;fill:#000000;fill-opacity:1;stroke:none;stroke-width:0.264583"
       xml:space="preserve"
       inkscape:export-xdpi="300"
       inkscape:export-ydpi="300"><tspan
         id="tspan4749-4"
         style="font-style:normal;font-variant:normal;font-weight:600;font-stretch:normal;font-size:3.52777px;line-height:1;font-family:'URW Gothic L';-inkscape-font-specification:'URW Gothic L Semi-Bold';text-align:center;text-anchor:middle;stroke-width:0.264583"
         y="156.27333"
         x="82.33448"
         sodipodi:role="line"><tspan
   style="font-style:normal;font-variant:normal;font-weight:bold;font-stretch:normal;font-family:'URW Gothic L';-inkscape-font-specification:'URW Gothic L';stroke-width:0.264583"
   id="tspan4761-4">Galdetegi etikoak<tspan
   style="font-weight:normal"
   id="tspan574">,</tspan></tspan><tspan
   id="tspan4747-3"
   style="font-style:normal;font-variant:normal;font-weight:normal;font-stretch:normal;font-size:3.52777px;font-family:'URW Gothic L';-inkscape-font-specification:'URW Gothic L';stroke-width:0.264583"> </tspan>liberaforms.org</tspan></text>
    <g
       inkscape:export-ydpi="300"
       inkscape:export-xdpi="300"
       transform="translate(53.777351,-137.84188)"
       id="g4759-0">
      <g
         inkscape:export-ydpi="300"
         inkscape:export-xdpi="300"
         transform="matrix(0.00588668,0,0,0.00588668,59.095761,291.16752)"
         id="g4755-7"
         style="fill:#000000">
        <path
           id="path4753-8"
           d="m 390.5,116.59 c 5.646,0 11.67,0.303 18.075,0.923 39.136,3.823 84.396,39.641 89.915,108.29 V 248.65 C 493.376,314.365 443.76,395.41 298.79,497.08 153.81,395.4 104.2,314.36 99.09,248.65 v -22.847 c 5.516,-68.649 50.727,-104.47 89.863,-108.29 6.428,-0.62 12.453,-0.923 18.098,-0.923 45.209,0 66.905,19.529 91.737,49.12 24.83,-29.59 46.5,-49.12 91.7,-49.12 m 0,43.68 c -25.97,0 -36.805,7.963 -58.245,33.516 l -33.464,39.882 -33.49,-39.882 c -21.416,-25.553 -32.251,-33.516 -58.247,-33.516 -4.254,0 -8.912,0.241 -13.847,0.723 -18.072,1.757 -46.171,20.996 -50.424,66.7 v 19.125 c 5.316,57.374 57.765,123.38 156.01,196.41 98.241,-73.04 150.69,-139.03 156.01,-196.41 v -19.13 c -4.277,-45.691 -32.401,-64.943 -50.424,-66.7 -4.97,-0.48 -9.63,-0.72 -13.89,-0.72 z"
           inkscape:connector-curvature="0"
           style="fill:#000000" />
      </g>
      <path
         inkscape:export-ydpi="300"
         inkscape:export-xdpi="300"
         sodipodi:nodetypes="ccccc"
         inkscape:connector-curvature="0"
         id="path4757-6"
         d="m 60.952797,292.67462 c -0.480004,-1.12613 -1.184896,-0.40085 -1.018044,0.0897 0.164418,0.53862 0.549661,0.64523 0.919836,1.01239 0.571771,-0.33038 1.409762,-1.39135 0.539784,-1.6657 -0.33753,0.0737 -0.481865,0.26328 -0.441576,0.56366"
         style="fill:#000000;stroke:#000000;stroke-width:0.183535px;stroke-linecap:butt;stroke-linejoin:miter;stroke-opacity:1" />
    </g>
  </g>
</svg>
